%% Generated by lilypond-book.py
%% Options: [exampleindent=10.16\mm,fragment,indent=0\mm,line-width=160\mm,quote,staffsize=26]
\include "lilypond-book-preamble.ly"


% ****************************************************************
% Start cut-&-pastable-section
% ****************************************************************

#(set-global-staff-size 26)

\paper {
  indent = 0\mm
  line-width = 160\mm
  % offset the left padding, also add 1mm as lilypond creates cropped
  % images with a little space on the right
  line-width = #(- line-width (* mm  3.000000) (* mm 1))
  line-width = 160\mm - 2.0 * 10.16\mm
  % offset the left padding, also add 1mm as lilypond creates cropped
  % images with a little space on the right
  line-width = #(- line-width (* mm  3.000000) (* mm 1))
}

\layout {
  
}




{


% ****************************************************************
% ly snippet contents follows:
% ****************************************************************
\sourcefileline 153
c'4 f16



% ****************************************************************
% end ly snippet
% ****************************************************************
}
